PCA
…
#save plot
ggsave("~/projects/project_r4bd/doc/results/images/scatterplot_pca.png", plot = scatterplot_pca)

Saving 7 x 5 in image

The negative patients form a dense cluster in the right corner, whereas it is more spread out to the lower-left corner for the positive ones. Patients with positive cancer diagnosis have more distinct patterns in their values compared to those with no cancer. This separation suggests that features e.g., age, smoking or STD’s might contribute strongly to distinguish cancer-positive patients.

The data in PC coordinates

pca_fit_cancer |> 
  tidy(matrix = "rotation")

# A tibble: 361 × 3
   column    PC   value
   <chr>  <dbl>   <dbl>
 1 ID         1  0.0110
 2 ID         2 -0.0333
 3 ID         3 -0.222 
 4 ID         4  0.235 
 5 ID         5 -0.167 
 6 ID         6 -0.0169
 7 ID         7 -0.218 
 8 ID         8  0.353 
 9 ID         9 -0.213 
10 ID        10  0.653 
# ℹ 351 more rows
…
